CI0001|1450.4
CI0002|2411.4
BT0003|3380.4
BT0004|4410.4
FG0005|5440.4
FG0006|64100.4
MC0007|7410.4
MC0008|8450.4
CI0009|9450.4
CI0010|1410.4
BT0011|24180.4
BT0012|3420.4
FG0013|4400.4
FG0014|54200.4
MC0015|6410.4
MC0016|7490.4
CI0017|8450.4
CI0018|9411.4
BT0019|10480.4
BT0020|11410.4
FG0021|1240.4
FG0022|13100.4
MC0023|2410.4
MC0024|5450.4
CI0025|7450.4
CI0026|8410.4
BT0027|74180.4
BT0028|7420.4
FG0029|54100.4
FG0030|24200.4
MC0031|7410.4
MC00323|18490.4